<?xml version="1.0" encoding="utf-8"?>
<!-- Generator: Adobe Illustrator 21.1.0, SVG Export Plug-In . SVG Version: 6.00 Build 0)  -->
<svg version="1.1" id="Calque_1" xmlns="http://www.w3.org/2000/svg" xmlns:xlink="http://www.w3.org/1999/xlink" x="0px" y="0px"
	 width="612px" height="792px" viewBox="0 0 612 792" style="enable-background:new 0 0 612 792;" xml:space="preserve">
<style type="text/css">
	.st0{fill:none;stroke:#000000;stroke-width:3;stroke-miterlimit:5;}
	.st1{fill:#FFFFFF;stroke:#000000;stroke-width:3;stroke-miterlimit:5;}
<defs>
		<style>
		.st0 {

		stroke-dasharray: 10000;
		stroke-dashoffset:0;
	-webkit-animation: dash 5s linear forwards;
	-o-animation: dash 5s linear forwards;
	-moz-animation: dash 5s linear forwards;
	animation: dash 5s linear forwards;
	}
	.st1 {

		stroke-dasharray: 10000;
		stroke-dashoffset:0;
	-webkit-animation: dash 5s linear forwards;
	-o-animation: dash 5s linear forwards;
	-moz-animation: dash 5s linear forwards;
	animation: dash 5s linear forwards;
	}

	@-webkit-keyframes dash{
		from{
			stroke-dashoffset: 10000;
		}
		to{
			stroke-dashoffset: 0;
		}
	}
		</style>
	</defs>
</style>
<g>
	<path class="st0" d="M197.226,441.075c9.324,0.023,18.648,0.034,27.972,0.084c1.214,0.007,2.493-0.376,3.634,0.391
		c1.1,0.715,1.494,1.775,1.75,3.034c0.547,2.68,1.847,3.33,3.9,1.138c1.745-0.787,3.266-1.792,3.85-3.766
		c0.455-1.536,1.654-2.058,3.104-2.238c6.247-0.604,12.502-1.561,18.637,0.674c1.961,2.411,0.397,3.838-1.478,5.136
		c-7.098,4.914-14.664,8.964-22.784,11.894c-2.714,0.979-4.839,2.443-6.284,4.914c-0.396,0.716-2.077,0.397-1.618,1.596
		c0.355,0.927,1.461,1.232,2.578,0.991c2.788-0.602,4.818-2.506,7.068-4.039c10.822-4.362,21.024-9.809,30.164-17.136
		c1.073-0.86,2.088-1.784,3.162-2.639c1.173-0.934,2.359-1.483,3.601-0.108c1.998,0.048,3.996,0.138,5.993,0.138
		c66.745,0.007,133.489,0.002,200.234,0.029c1.294,0.001,2.737-0.472,4.471,1.147c-86.532,28.073-172.654,56.013-258.776,83.953
		c-2.06-1.639-2.921-3.994-3.716-6.359c-8.336-24.814-17.172-49.456-25.595-74.24C196.558,444.086,196.072,442.576,197.226,441.075z
		"/>
	<path class="st0" d="M119.926,440.913c25.555-0.01,51.11-0.02,76.665-0.03c0.214,0.055,0.426,0.119,0.635,0.192
		c8.967,25.794,17.961,51.579,26.859,77.398c0.879,2.552,2.676,4.867,2.32,7.796c-18.948,6.132-37.898,12.258-56.844,18.398
		c-13.496,4.374-26.989,8.758-40.475,13.163c-1.902,0.621-2.906,0.464-3.034-1.962c-0.946-17.822-1.985-35.639-3.032-53.456
		c-0.887-15.074-1.921-30.139-2.688-45.219C120.058,451.778,119.186,446.359,119.926,440.913z"/>
	<path class="st0" d="M138.054,278.188c-1.063-2.149-0.659-4.126,0.704-5.991c2.444-1.454,4.577-0.163,6.697,0.826
		c10.788,5.031,18.53,13.368,24.923,23.136c6.577,10.048,11.678,20.896,17.09,31.577c0.668,1.318,1.494,2.556,2.246,3.831
		c2.356,0.108,1.926-1.596,1.843-2.953c-0.352-5.779-0.48-11.58-0.961-17.34c-0.937-11.235-2.222-22.458-5.878-33.211
		c-0.775-2.28,0.737-4.422-0.201-6.572c-1.414-2.523-0.57-4.296,1.886-5.446c2.685-1.257,3.983,0.513,4.915,2.537
		c3.482,7.562,4.8,15.711,5.847,23.845c2.283,17.737,2.621,35.582,2.344,53.446c-0.039,2.525-0.402,4.73-2.918,5.967
		c-2.028,1.962-3.623,0.784-5.099-0.758c-4.89-5.11-8.098-11.349-11.353-17.501c-6.117-11.565-11.787-23.372-19.094-34.273
		c-0.347-0.518-0.738-1.008-1.058-1.542c-1.194-1.994-2.367-3.438-3.932-0.255c-0.248,0.503-1.11,0.537-1.441,1.117
		c-0.823,3.689-1.646,7.378-2.468,11.066c-3.431,13.289-7.332,26.427-12.5,39.164c-0.753,1.855-1.573,3.462-3.916,3.308
		c-3.019-0.198-4.357-2.694-3.096-6.119c3.451-9.377,6.647-18.838,9.356-28.454c2.266-8.042,4.754-16.04,5.706-24.392
		c-0.231-0.266-0.452-0.539-0.665-0.819c1.219-5.922-1.057-9.721-6.89-11.384C138.752,280.604,138.312,279.45,138.054,278.188z"/>
	<path class="st0" d="M228.632,461.981c-0.317-3.176,1.384-4.577,4.237-5.558c9.902-3.405,19.22-7.976,27.39-14.654
		c-0.432-1.804,0.852-2.618,1.963-3.639c4.003-3.679,8.044-7.334,11.025-11.963c2.569-2.312,5.179-4.458,6.823-7.725
		c3.699-7.347,2.897-17.841-7.584-22.422c-6.351-2.776-13.035-3.439-19.867-3.356c-2.155,0.026-3.367,1.385-4.577,2.836
		c-2.319,4.639-1.752,9.757-2.254,14.645c-0.849,8.275-1.808,16.541-2.563,24.828c-0.202,2.215-0.564,4.474-2.49,6.029
		c-0.737,3.272-1.576,6.443-6,6.074c-3.288-0.191-4.262-1.239-3.72-4.652c2.047-12.891,2.657-25.94,4.399-38.863
		c0.257-1.909,0.096-3.831,0.084-5.743c-0.009-1.42-0.435-2.751-2.299-2.74c-2.31,0.298-4.257,1.952-6.69,1.794
		c-3.78-0.995-4.009-1.521-2.382-5.476c3.665-4.001,8.824-4.454,13.63-5.377c11.997-2.302,24.033-2.577,35.87,1.059
		c12.59,3.868,19.079,12.502,18.068,24.095c-0.589,6.751-3.377,12.759-7.406,18.104c-3.063,4.064-6.523,7.827-9.807,11.725
		c-2.561,0.714-3.911,3.023-5.882,4.515c-8.605,6.515-17.713,12.114-27.866,15.908c-0.805,0.301-1.523,0.831-2.282,1.255
		c-1.91,1.517-4.263,1.85-6.533,2.251C229.795,465.308,228.217,464.646,228.632,461.981z"/>
	<path class="st0" d="M345.18,395.108c4.836-4.628,10.377-6.284,15.483-2.475c3.397,2.534,5.075,2.261,8.459,0.293
		c10.088-5.865,20.015,0.214,20.063,11.895c0.034,8.246-0.102,16.495,0.065,24.738c0.057,2.798-1.088,3.304-3.528,3.251
		c-2.382-0.052-4.018-0.108-3.94-3.308c0.195-7.992,0.087-15.991,0.05-23.988c-0.023-4.96-2.189-7.168-6.969-7.256
		c-4.496-0.083-7.375,2.752-7.404,7.456c-0.05,7.996-0.149,15.996,0.049,23.988c0.075,3.039-1.485,3.109-3.682,3.064
		c-2.083-0.043-3.867,0.171-3.791-2.976c0.193-7.992,0.061-15.991,0.075-23.988c0.009-5.163-2.177-7.508-7.077-7.544
		c-4.58-0.034-7.306,2.706-7.328,7.498c-0.038,7.996-0.137,15.996,0.049,23.988c0.071,3.062-1.491,3.074-3.718,3.015
		c-2.096-0.055-3.836,0.233-3.791-2.94c0.164-11.368,0.024-22.739,0.109-34.109c0.011-1.488-1.061-3.853,1.828-4.056
		C342.498,391.492,345.18,391,345.18,395.108z"/>
	<path class="st0" d="M407.245,496.562c0.213,1.888-0.238,3.989-1.543,5.725c-1.464,1.947-0.72,2.819,1.046,3.991
		c4.56,3.026,8.912,6.363,13.445,9.431c2.049,1.387,2.14,2.262-0.259,3.108c-0.117,0.041-0.258,0.033-0.361,0.095
		c-5.067,3.032-9.474,1.97-13.724-1.841c-2.487-2.23-5.413-3.964-8.095-5.984c-1.187-0.893-2.264-1.426-3.717-0.492
		c-1.666,1.071-0.465,2.301-0.168,3.297c0.994,3.333,2.064,6.661,3.407,9.865c0.86,2.052,0.249,2.798-1.618,3.594
		c-6.667,2.843-6.61,2.897-8.978-3.893c-3.524-10.105-7.034-20.215-10.689-30.272c-0.892-2.454-0.405-3.544,2.135-4.27
		c4.78-1.367,9.406-3.307,14.22-4.519C400.107,482.441,407.193,488.238,407.245,496.562z"/>
	<path class="st0" d="M333.403,349.576c0.186,9.197-5.992,13.401-15.334,10.738c-7.401-2.11-11.877-7.001-13.56-14.389
		c-1.752-7.689-1.175-15.039,3.719-21.658c4.07-5.504,11.127-8.008,17.102-5.851c7.756,2.8,10.068,8.927,10.277,15.713
		c0.126,4.076-3.803,7.587-7.841,7.601c-4.619,0.017-9.239,0.047-13.857-0.002c-2.412-0.026-3.083,0.697-2.114,3.139
		c3.002,7.566,10.191,10.454,17.682,6.883C330.792,351.122,332.033,350.339,333.403,349.576z"/>
	<path class="st0" d="M426.036,423.044c-1.527,3.014,0.191,7.249-3.699,9.156c-5.348,2.623-10.906,2.597-16.102-0.303
		c-8.047-4.491-10.861-11.984-10.586-20.721c0.201-6.381,2.152-12.19,7.329-16.517c5.41-4.522,11.509-5.139,17.606-1.61
		c4.86,2.814,7.984,10.087,6.836,15.918c-0.614,3.122-3.835,5.727-7.137,5.738c-4.492,0.014-8.983-0.018-13.475,0.011
		c-3.774,0.025-4.108,0.596-2.551,4.147c3.121,7.117,10.941,9.509,18.208,5.604C423.498,423.913,424.244,422.696,426.036,423.044z"
		/>
	<path class="st0" d="M247.502,339.276c0.008,7.042-1.954,13.389-7.621,17.889c-9.426,7.485-22.519,3.397-27.093-8.475
		c-2.551-6.621-2.496-13.407,0.536-19.959c3.521-7.61,10.204-11.842,17.331-11.118c7.685,0.781,14.052,6.622,16.062,14.635
		C247.297,334.564,247.611,336.884,247.502,339.276z"/>
	<path class="st0" d="M332.757,428.424c-0.69,1.058-1.184,1.927-1.783,2.715c-2.488,3.271-3.747,3.447-6.242,0.143
		c-1.402-1.857-2.036-1.362-3.356-0.149c-3.468,3.186-7.506,3.825-11.74,1.803c-4.137-1.975-6.43-5.409-6.612-10.025
		c-0.39-9.845,3.481-13.894,14.48-15.489c1.786-0.259,4.542,0.891,4.333-2.856c-0.191-3.431-1.939-5.844-5.116-6.315
		c-3.097-0.46-5.976,0.266-8.506,1.942c-2.003,1.326-2.503,0.558-2.897-1.338c-0.97-4.666-0.688-5.23,3.964-6.992
		c10.586-4.009,19.676,2.037,19.905,13.316c0.109,5.371,0.039,10.747,0.018,16.12C329.193,424.281,329.489,427.09,332.757,428.424z"
		/>
	<path class="st0" d="M490.214,493.527c-6.372-0.271-11.269-3.446-13.942-9.917c-2.417-5.852-1.832-11.372,2.503-15.993
		c4.263-4.545,9.556-6.715,15.904-4.773c6.344,1.94,9.235,8.271,6.3,13.362c-1.017,1.764-2.637,2.189-4.236,2.78
		c-2.569,0.95-5.194,1.747-7.77,2.678c-0.633,0.229-1.631,0.314-1.576,1.266c0.046,0.792,0.787,1.233,1.476,1.558
		c4.087,1.925,7.712,0.492,11.393-1.37c1.127-0.57,1.962-3.35,3.759-1.163c1.991,2.423,1.631,6.132-0.62,7.591
		C499.576,492.028,495.385,493.5,490.214,493.527z"/>
	<path class="st0" d="M429.452,502.878c3.162,3.62,8.4,3.638,13.489,0.17c2.859-1.949,3.152-1.994,3.265-1.255
		c0.381,2.493,3.146,5.332,0.075,7.48c-11.627,8.133-25.85,5.449-28.894-9.247c-1.129-5.453,1.833-11.919,6.926-15.001
		c5.953-3.603,11.962-3.529,16.717,0.354c2.425,1.98,3.983,4.661,3.52,7.802c-0.464,3.15-2.527,5.198-5.749,6.16
		C435.632,500.289,432.369,501.1,429.452,502.878z"/>
	<path class="st0" d="M257.248,339.132c0-3.372-0.174-6.757,0.054-10.113c0.189-2.788-0.706-3.991-3.536-3.52
		c-2.672,0.444-3.372-0.774-3.349-3.344c0.022-2.48,0.544-3.885,3.288-3.396c3.211,0.571,4.056-1.193,3.531-3.825
		c-0.84-4.211,1.588-5.972,4.859-7.536c1.903-0.91,2.269-0.034,2.345,1.401c0.118,2.243,0.174,4.501,0.043,6.741
		c-0.138,2.357,0.6,3.489,3.15,3.244c1.856-0.178,3.744-0.057,5.617-0.019c1.337,0.028,3.119-0.206,2.643,1.977
		c-0.396,1.818,0.508,4.619-2.798,4.738c-1.996,0.072-4.002,0.116-5.993,0.004c-1.988-0.112-2.615,0.777-2.599,2.648
		c0.057,6.619,0.045,13.239,0.022,19.859c-0.011,3.258,1.527,4.73,4.806,4.808c1.216,0.029,3.912-1.4,3.349,1.618
		c-0.459,2.465,0.363,6.473-4.147,6.21c-5.988-0.348-10.731-3.492-11.212-10.631c-0.243-3.605-0.042-7.241-0.042-10.862
		C257.268,339.132,257.258,339.132,257.248,339.132z"/>
	<path class="st0" d="M453.553,503.426c0.901-5.815,1.66-11.745,2.794-17.603c0.561-2.899-0.355-3.119-2.628-2.205
		c-0.575,0.231-1.182,0.384-1.766,0.594c-3.924,1.41-6.384-0.509-6.335-4.804c0.018-1.556,1.123-1.86,2.115-2.213
		c5.273-1.88,10.56-3.724,15.872-5.492c3.216-1.07,3.819-0.514,3.291,2.758c-0.931,5.766-1.781,11.548-2.848,17.289
		c-0.403,2.166-0.076,2.881,2.148,2.02c1.622-0.628,3.33-1.044,4.93-1.719c2.292-0.967,4.056-1.511,4.934,1.859
		c0.728,2.79,1.495,4.744-2.379,5.83c-5.862,1.643-11.571,3.849-17.297,5.946C454.04,506.541,453.449,505.665,453.553,503.426z"/>
	<path class="st0" d="M288.573,323.673c2.959-3.48,5.689-4.744,8.803-5.468c4.142-0.963,3.089,2.484,3.796,4.333
		c0.74,1.936,0.035,2.681-2.202,3.053c-6.502,1.084-10.021,6.362-10.196,14.861c-0.113,5.494-0.186,10.998,0.037,16.485
		c0.126,3.094-1.558,3.044-3.732,3.028c-2.158-0.016-3.852,0.046-3.814-3.033c0.139-11.24,0.013-22.483,0.092-33.724
		c0.013-1.821-1.144-4.505,2.615-4.461C286.743,318.779,289.549,318.273,288.573,323.673z"/>
	<path class="st0" d="M284.945,564.897c0.12,0.977-0.525,1.616-1.602,1.948c-4.38,1.352-8.785,2.632-13.126,4.1
		c-1.571,0.531-2.011-0.175-2.386-1.385c-3.341-10.78-6.614-21.582-10.107-32.312c-0.628-1.929,0.121-2.541,1.513-3.019
		c3.749-1.287,7.534-2.469,11.292-3.734c1.783-0.6,2.491,0.409,2.996,1.833c0.537,1.514-0.118,2.355-1.537,2.792
		c-0.711,0.219-1.416,0.459-2.122,0.695c-5.442,1.824-5.442,1.824-4.114,7.246c1.289,5.26,2.09,5.847,7.191,4.35
		c1.947-0.571,3.296-0.903,4.014,1.497c0.796,2.66-1.598,2.26-2.763,2.969c-0.719,0.437-1.622,0.617-2.468,0.791
		c-1.796,0.37-2.573,1.244-1.728,3.072c0.103,0.224,0.158,0.471,0.226,0.71c2.471,8.616,2.501,8.713,11.079,5.981
		C283.782,561.642,284.854,562.068,284.945,564.897z"/>
	<path class="st0" d="M310.214,535.369c0.927-0.279,2.463-0.755,4.008-1.205c1.565-0.456,2.579-0.581,3.22,1.63
		c0.676,2.331-0.337,2.342-1.958,2.842c-5.755,1.776-5.731,1.853-3.713,7.89c1.912,5.721,1.913,5.722,7.681,3.759
		c0.823-0.28,1.651-0.55,2.462-0.864c1.42-0.551,2.735-0.721,3.37,1.06c0.685,1.918-0.097,3.033-2.008,3.603
		c-3.917,1.169-7.81,2.422-11.714,3.636c-1.736,0.54-2.751,0.072-3.336-1.824c-3.22-10.435-6.486-20.856-9.893-31.231
		c-0.68-2.07-0.329-2.904,1.755-3.478c3.583-0.987,7.1-2.22,10.639-3.364c1.467-0.474,2.731-0.468,3.29,1.295
		c0.572,1.806-0.175,2.581-1.953,3.199c-2.281,0.792-5.933,0.659-6.489,2.799c-0.736,2.834,1.252,5.924,2.207,8.861
		C308.027,534.729,308.377,535.717,310.214,535.369z"/>
	<path class="st0" d="M154.614,298.63c0.566-2.505,1.133-5.01,1.886-8.342c3.942,4.503,6.787,8.825,9.526,13.225
		c7.662,12.307,13.281,25.733,20.862,38.083c1.5,2.443,3.134,4.81,4.81,7.136c1.192,1.655,2.7,2.959,4.893,3.108
		c-0.033,0.497,0.008,1.013-0.113,1.487c-0.416,1.631-0.272,3.703-2.352,4.283c-2.255,0.628-3.478-1.204-4.527-2.638
		c-4.63-6.325-8.592-13.072-12.129-20.065c-5.943-11.751-11.748-23.578-19.643-34.212
		C156.979,299.553,156.271,298.414,154.614,298.63z"/>
	<path class="st0" d="M191.755,557.404c-0.962,6.542-1.83,12.437-2.695,18.331c-0.765,5.208,2.415,9.541,3.209,14.405
		c0.138,0.844,0.607,1.642,0.692,2.485c0.266,2.625-1.705,3.401-3.646,3.96c-2.248,0.647-1.814-1.598-2.316-2.593
		c-0.657-1.3-0.964-2.822-1.197-4.284c-1.362-8.542-7.548-13.927-12.904-19.854c-0.919-1.016-1.998-1.892-2.875-2.94
		c-0.924-1.104-3.231-2.545-1.751-3.638c1.66-1.226,4.359-2.757,6.635-0.064c2.17,2.567,4.474,5.022,6.751,7.496
		c0.484,0.525,0.931,1.45,1.739,1.2c0.915-0.284,0.987-1.321,1.081-2.174c0.302-2.716,0.567-5.436,0.863-8.153
		c0.283-2.597,0.952-4.674,4.111-5.309C191.435,555.873,192.043,556.029,191.755,557.404z"/>
	<path class="st0" d="M346.596,539.57c1.457,0.162,2.898,0.398,4.347,0.466c2.341,0.108,4.624-0.227,5.565-2.761
		c0.976-2.629-0.232-4.7-2.039-6.62c-3.046-3.236-7.242-4.782-10.647-7.482c-3.694-2.929-5.452-7.534-4.154-11.135
		c1.436-3.985,5.838-6.569,10.307-6.568c2.611,0.001,2.76,1.769,3.055,3.363c0.463,2.498-1.563,1.577-2.718,1.655
		c-1.942,0.132-3.87,0.345-4.541,2.524c-0.596,1.936,0.088,3.531,1.528,5.052c3.147,3.326,7.604,4.65,11.015,7.609
		c3.82,3.314,5.858,8.249,4.518,12.583c-1.033,3.34-6.839,6.912-11.168,6.87C348.603,545.098,347.494,543.889,346.596,539.57z"/>
	<path class="st0" d="M242.464,573.796c1.348,5.063,1.121,5.627-3.365,7.41c-4.596,1.827-8.961,1.383-13.023-1.566
		c-7.103-5.158-11.382-18.533-8.578-26.905c1.872-5.59,6.832-9.359,12.615-9.264c1.651,0.027,3.952-0.206,3.88,2.774
		c-0.037,1.555-0.322,2.135-2.062,2.03c-7.064-0.425-9.282,4.654-9.075,10.406c0.128,3.552,1.069,7.077,2.7,10.372
		C229.717,577.453,234.413,578.891,242.464,573.796z"/>
	<path class="st0" d="M137.977,572.399c1.777,0.061,1.84,1.421,2.147,2.374c2.577,8.016,5.153,16.034,7.581,24.096
		c1.585,5.264,1.471,5.29,6.671,3.597c1.297-0.422,2.659-0.671,3.911-1.194c1.704-0.711,2.437-0.17,2.993,1.522
		c0.537,1.634,0.281,2.503-1.413,3.004c-4.393,1.301-8.802,2.57-13.126,4.077c-1.583,0.552-2.05-0.16-2.408-1.28
		c-3.508-10.961-7.152-21.884-10.368-32.931C133.064,572.572,136.821,573.604,137.977,572.399z"/>
	<path class="st0" d="M233.201,395.077c1.159-0.706,2.413-1.767,3.723-0.796c1.169,0.866,0.386,2.316,0.295,3.511
		c-1.134,14.872-2.692,29.701-4.558,44.498c-0.26,2.062,0.246,3.682,2.076,4.784c0.358,2.645-1.617,2.364-3.116,2.289
		c-1.78-0.089-3.006-1.113-3.021-3.043c-0.012-1.589,0.149-3.18,0.233-4.771c2.017-2.021,1.313-4.717,1.575-7.09
		c1.289-11.684,2.379-23.39,3.484-35.093C234.028,397.92,234.272,396.369,233.201,395.077z"/>
	<path class="st0" d="M184.517,271.492c3.86,9.732,5.406,19.978,6.498,30.287c1.092,10.307,1.484,20.667,1.601,31.032
		c0.011,0.938-0.179,1.878-0.326,3.306c-1.552-1.567-2.149-3.01-2.577-4.551c1.041-1.597,0.767-3.408,0.627-5.107
		c-1.019-12.4-1.44-24.876-4.397-37.046c-0.5-2.056-0.88-4.166-1.629-6.131C182.792,279.285,180.632,275.363,184.517,271.492z"/>
	<path class="st1" d="M184.179,403.691c-9.439-27.958-19.48-55.712-29.223-83.568c-1.187-3.395-2.757-6.714-2.81-10.426
		c-2.818-0.038-2.525,2.445-2.974,4.013c-2.961,10.328-5.878,20.667-9.861,30.662c-0.699,1.755-1.203,4.912-3.366,4.172
		c-2.832-0.968-0.707-3.697-0.108-5.468c4.685-13.846,9.268-27.72,12.431-42.011c0.581-2.624,1.779-5.266,0.563-8.041
		c-1.414-1.029-3.158-1.813-2.963-4.026c-0.464-2.191-2.516-2.535-4.063-3.378c-4.603-2.507-4.627-2.463-2.549-7.25
		c0.191-2.086,0.989-4.221-0.498-6.172c-5.73-16.279-11.349-32.597-17.239-48.818c-2.794-7.695-4.756-15.687-8.247-23.131
		c-2.452-8.219-5.243-16.313-8.686-24.207c-0.769,6.644,0.442,13.143,0.544,19.68c0,0,0,0,0,0c0,0,0,0,0,0
		c-0.432,7.382,0.312,14.746,0.993,22.047c1.936,20.75,2.527,41.577,4.001,62.351c0.979,13.804,1.511,27.639,2.337,41.455
		c0.646,10.816,1.947,21.62,2.009,32.435c0.056,9.859,1.465,19.598,1.524,29.451c0.057,9.589,1.097,19.174,1.774,28.755
		c0.676,9.569,1.437,19.132,2.16,28.698c1.16,2.289,3.38,1.84,5.275,1.873c9.34,0.16,18.683,0.069,28.025,0.068
		c12.58-0.001,25.161,0.081,37.74-0.066c1.998-0.023,4.372,0.54,5.625-1.905C193.355,428.188,188.359,416.07,184.179,403.691z"/>
	<path class="st0" d="M487.665,448.46c3.725,3.992,3.83,4.909,0.058,8.314c-1.858,1.677-3.469,4.598-6.876,2.919
		c-1.453-0.716-1.847-1.591-0.547-2.831C482.994,454.292,485.745,451.773,487.665,448.46z"/>
	<path class="st0" d="M267.334,518.923c0.967,1.967,3.283,3.023,1.744,5.382c-1.628,2.494-3.734,4.518-6.475,5.713
		c-0.43,0.187-1.432-0.437-1.894-0.939c-0.737-0.801,0.181-1.333,0.67-1.772C263.89,525.053,265.552,522.174,267.334,518.923z"/>
	<path class="st0" d="M224.129,391.396c-0.161,2.241,0.594,4.083,2.382,5.476c-1.957,1.948-3.95,1.745-5.225-0.523
		C219.67,393.475,222.201,392.499,224.129,391.396z"/>
	<path class="st0" d="M274.41,428.181c-4.182,5.087-8.732,9.79-14.151,13.587c-6.461-1.436-13.029-0.145-19.522-0.767
		c1.123-11.231,2.252-22.462,3.365-33.695c0.465-4.692,0.895-9.388,1.341-14.082c4.068-1.862,8.276-0.799,12.434-0.558
		c5.411,0.313,10.659,1.352,15.549,3.827c6.412,3.246,10.539,9.292,7.822,19.084C279.957,420.227,277.604,424.476,274.41,428.181z"
		/>
	<path class="st0" d="M228.632,461.981c1.439,2.478,3.557,2.552,5.977,1.749c1.259-0.418,2.563-0.703,3.846-1.048
		c-3.174,2.895-7.09,3.629-11.173,3.644c-1.48,0.006-2.52-1.039-2.819-2.541c-0.334-1.677-0.217-3.428,1.563-4.147
		C228.097,458.801,227.807,461.126,228.632,461.981z"/>
	<path class="st0" d="M138.054,278.188c2.276,0.982,4.538,1.999,6.831,2.937c3.842,1.571,5.299,4.203,3.86,8.245
		c-0.371,1.043-0.59,2.139-0.879,3.211c-1.481-0.558-1.911-2.19-3.105-3.042c-1.587-1.464-3.585-2.218-5.488-3.111
		C133.96,283.937,133.676,282.132,138.054,278.188z"/>
	<path class="st0" d="M144.762,289.54c2.157-0.132,2.86,1.221,3.105,3.042c-0.04,0.212-0.097,0.42-0.171,0.622
		C145.123,293.259,144.972,291.376,144.762,289.54z"/>
	<path class="st0" d="M274.41,428.181c1.047-2.109,2.112-4.209,3.14-6.327c6.656-13.712,1.479-24.222-13.526-27.18
		c-6.116-1.205-12.314-1.911-18.581-1.45c1.815-2.124,4.33-1.585,6.624-1.629c7.522-0.146,14.958,0.437,21.957,3.527
		c7.169,3.165,10.367,8.286,9.46,16.011C282.69,417.893,279.497,423.595,274.41,428.181z"/>
	<path class="st0" d="M397.563,496.72c-0.076,3.136-3.234,5.848-6.267,5.926c-1.14,0.029-4.403-5.535-3.854-7.285
		c0.755-2.409,3.264-2.467,5.239-2.513C395.454,492.783,397.472,494.1,397.563,496.72z"/>
	<path class="st0" d="M320.005,334.51c-1.742,0.004-3.492-0.103-5.224,0.027c-3.294,0.247-3.264-1.251-1.984-3.517
		c1.789-3.166,4.035-5.58,8.062-5.685c3.233-0.084,5.047,1.678,6.309,4.297c1.772,3.679,1.004,4.867-3.057,4.873
		C322.742,334.508,321.374,334.506,320.005,334.51z"/>
	<path class="st0" d="M411.609,407.353c-1.989,0-3.978,0.011-5.967-0.005c-1.036-0.008-1.911,0.046-1.575-1.611
		c0.622-3.066,4.71-7.125,8.06-7.446c3.603-0.346,5.794,1.742,7.257,4.734c1.561,3.192,0.915,4.235-2.554,4.294
		c-1.74,0.03-3.481,0.005-5.222,0.005C411.609,407.334,411.609,407.343,411.609,407.353z"/>
	<path class="st0" d="M240.032,339.497c0.007,3.813-0.734,7.387-3.485,10.262c-5.039,5.265-12.356,4.351-15.928-1.986
		c-2.897-5.14-2.777-10.498-0.703-15.785c1.847-4.707,6.753-7.301,11.425-6.485c4.196,0.733,8.225,5.992,8.681,11.378
		C240.095,337.747,240.032,338.625,240.032,339.497z"/>
	<path class="st0" d="M318.825,414.701c2.042-0.444,3.124,0.264,3.007,2.88c-0.188,4.19-3.845,8.943-7.305,9.088
		c-2.408,0.101-4.837-2.751-4.797-5.634C309.784,417.098,313.046,414.754,318.825,414.701z"/>
	<path class="st0" d="M489.418,469.823c1.675,0.313,3.467,0.678,3.772,2.521c0.282,1.702-1.577,1.546-2.594,2.034
		c-0.88,0.423-1.815,0.835-2.768,0.978c-1.233,0.185-2.804,1.755-3.625,0.225c-0.633-1.18,0.349-2.772,1.389-3.936
		C486.656,470.454,488.013,470.04,489.418,469.823z"/>
	<path class="st0" d="M431.648,490.09c1.996,0.376,3.601,0.903,3.787,2.601c0.188,1.715-1.738,1.426-2.728,2.009
		c-0.523,0.308-1.165,0.467-1.774,0.563c-1.54,0.242-3.792,2.376-4.429,0.314c-0.692-2.241,1.191-4.414,3.802-5.186
		C430.885,490.22,431.486,490.126,431.648,490.09z"/>
</g>
</svg>
